<svg width="26" height="24" viewBox="0 0 26 24" fill="none" xmlns="http://www.w3.org/2000/svg">
<path d="M17.5858 6.56805L10.7929 13.7988L15.1834 24L20.2959 12L25.4201 0L12.7101 2.95858L0 5.91716L9.28994 12.0118L17.5858 6.56805Z" fill="#82ED4F"/>
</svg>
